<?xml version="1.0" encoding="utf-8"?>
<!-- Generator: Adobe Illustrator 19.2.0, SVG Export Plug-In . SVG Version: 6.00 Build 0)  -->
<svg version="1.1" xmlns="http://www.w3.org/2000/svg" xmlns:xlink="http://www.w3.org/1999/xlink" x="0px" y="0px"
	 viewBox="0 0 355.4 102.5" style="enable-background:new 0 0 355.4 102.5;" xml:space="preserve" width="199" height="58">
<style type="text/css">
	.st0{fill:#fff;}
	.st1{fill:#ED3825;}
</style>
<g id="Layer_1">
	<g>
		<path class="st0" d="M126.8,13h14.4c6.1,0,7.6,3.6,7.6,6.5c0,4.6-2.4,7.3-7.1,7.3h-9v7.7h-5.8V13z M132.6,22.9h6.2
			c1.8,0,3.9-0.1,3.9-2.9c0-2.8-1.7-3-3.4-3h-6.8V22.9z"/>
		<path class="st0" d="M166.5,30h-9.8l-1.7,4.4h-6.3l9.4-21.4h7l9.4,21.4h-6.3L166.5,30z M161.6,17.6l-3.4,8.5h6.7L161.6,17.6z"/>
		<path class="st0" d="M177.2,13h15.6c5.9,0,6.9,3.6,6.9,5.8c0,2.6-1.1,4.3-3.5,5.2V24c2.6,0.4,2.9,3.6,2.9,5.7
			c0,1.1,0.1,3.6,1.1,4.7h-6.4c-0.5-1-0.6-1.9-0.6-4.1c0-3-1.3-3.8-3.1-3.8H183v7.9h-5.8V13z M183,22.5h7.7c1.3,0,2.8-0.7,2.8-2.7
			c0-2.1-1.7-2.7-3.1-2.7H183V22.5z"/>
		<polygon class="st0" points="209.6,17.1 201.7,17.1 201.7,13 223.4,13 223.4,17.1 215.4,17.1 215.4,34.4 209.6,34.4 		"/>
		<rect x="226.4" y="13" class="st0" width="5.8" height="21.4"/>
		<path class="st0" d="M255.4,21.1c-0.5-3.1-3.1-4.6-6.1-4.6c-5.5,0-6.7,4.3-6.7,7.2c0,2.9,1.2,7.2,6.7,7.2c2.8,0,5.6-1.4,6.1-4.7
			h6.3c-0.7,6.2-5.9,8.8-12.7,8.8c-7.8,0-12.7-3.4-12.7-11.3c0-8,4.9-11.3,12.7-11.3c5.2,0,11.7,1.3,12.6,8.7H255.4z"/>
		<polygon class="st0" points="265.5,13 271.4,13 271.4,30.2 284.4,30.2 284.4,34.4 265.5,34.4 		"/>
		<polygon class="st0" points="288.2,13 308.2,13 308.2,17.1 294,17.1 294,21.5 307.5,21.5 307.5,25.4 294,25.4 294,30.3 
			308.3,30.3 308.3,34.4 288.2,34.4 		"/>
		<polygon class="st0" points="148.1,43 156.6,43 156.6,64.4 151,64.4 151,47.3 150.9,47.3 144.1,64.4 139.3,64.4 132.5,47.3 
			132.4,47.3 132.4,64.4 126.8,64.4 126.8,43 135.3,43 141.7,58.4 		"/>
		<polygon class="st0" points="161.7,43 181.7,43 181.7,47.1 167.5,47.1 167.5,51.5 181,51.5 181,55.4 167.5,55.4 167.5,60.4 
			181.8,60.4 181.8,64.4 161.7,64.4 		"/>
		<path class="st0" d="M201.4,60h-9.8l-1.7,4.4h-6.3L193,43h7l9.4,21.4h-6.3L201.4,60z M196.5,47.6l-3.4,8.5h6.7L196.5,47.6z"/>
		<path class="st0" d="M226.6,49.2c-0.4-2.8-3-3.1-5.4-3.1c-2.4,0-4,1.1-4,2.5c0,1.1,1,1.8,2.5,2l7.3,1.2c3.9,0.6,6.9,2.1,6.9,6
			c0,4-2.7,7.2-11.1,7.2c-5.2,0-12-0.7-12.1-7.4h6.5c0.1,2.9,3,3.5,5.5,3.5c2.7,0,4.6-0.8,4.6-2.7c0-1.7-1.3-2.1-3.6-2.5l-5.3-0.8
			c-3.7-0.6-7.3-1.7-7.3-6.1c0-4.8,3.9-6.7,10.6-6.7c4.4,0,11,0.8,11.4,6.8H226.6z"/>
		<path class="st0" d="M237.3,43h5.8v12.3c0,2.1,0.1,5.6,5.4,5.6c5.3,0,5.4-3.5,5.4-5.6V43h5.8v13.8c0,2.4-0.3,8.3-11.3,8.3
			c-11,0-11.3-5.9-11.3-8.3V43z"/>
		<path class="st0" d="M264.7,43h15.6c5.9,0,6.9,3.6,6.9,5.8c0,2.6-1.1,4.3-3.5,5.2v0.1c2.6,0.4,2.9,3.6,2.9,5.7
			c0,1.1,0.1,3.6,1.1,4.7h-6.4c-0.5-1-0.6-1.9-0.6-4.1c0-3-1.3-3.8-3.1-3.8h-7.2v7.9h-5.8V43z M270.5,52.5h7.7
			c1.3,0,2.8-0.7,2.8-2.7c0-2.1-1.7-2.7-3.1-2.7h-7.4V52.5z"/>
		<rect x="291.2" y="43" class="st0" width="5.8" height="21.4"/>
		<polygon class="st0" points="320.2,43 325.8,43 325.8,64.4 319.5,64.4 307.8,49.5 307.8,49.5 307.8,64.4 302.1,64.4 302.1,43 
			308.9,43 320.1,58 320.2,58 		"/>
		<path class="st0" d="M344.5,52.5h10.9v12h-2.9l-0.8-2.5c-2,2.2-5.3,3.1-9,3.1c-7.8,0-12.7-3.4-12.7-11.3c0-6.6,4.6-11.3,12.7-11.3
			c5.9,0,11.6,1.7,12.6,7.6h-6.5c-0.9-2.8-3.4-3.5-5.5-3.5c-5.3,0-7.1,3.9-7.1,7.2c0,3.3,1.9,7.2,7.1,7.2c3.2,0,5.6-1.2,6.3-4.7
			h-5.2V52.5z"/>
		<path class="st0" d="M141.3,79.3c-0.4-2.8-3-3.1-5.4-3.1c-2.4,0-4,1.1-4,2.5c0,1.1,1,1.8,2.5,2l7.3,1.2c3.9,0.6,6.9,2.1,6.9,6
			c0,4-2.7,7.2-11.1,7.2c-5.2,0-12-0.7-12.1-7.4h6.5c0.1,2.9,3,3.5,5.5,3.5c2.7,0,4.6-0.8,4.6-2.7c0-1.7-1.3-2.1-3.6-2.5l-5.3-0.8
			c-3.7-0.6-7.3-1.7-7.3-6.1c0-4.8,3.9-6.7,10.6-6.7c4.4,0,11,0.8,11.4,6.8H141.3z"/>
		<polygon class="st0" points="159,87 149.5,73 156.3,73 161.9,82.4 167.4,73 174.3,73 164.8,87 164.8,94.5 159,94.5 		"/>
		<path class="st0" d="M191.1,79.3c-0.4-2.8-3-3.1-5.4-3.1c-2.4,0-4,1.1-4,2.5c0,1.1,1,1.8,2.5,2l7.3,1.2c3.9,0.6,6.9,2.1,6.9,6
			c0,4-2.7,7.2-11.1,7.2c-5.2,0-12-0.7-12.1-7.4h6.5c0.1,2.9,3,3.5,5.5,3.5c2.7,0,4.6-0.8,4.6-2.7c0-1.7-1.3-2.1-3.6-2.5l-5.3-0.8
			c-3.7-0.6-7.3-1.7-7.3-6.1c0-4.8,3.9-6.7,10.6-6.7c4.4,0,11,0.8,11.4,6.8H191.1z"/>
		<polygon class="st0" points="207.9,77.1 200,77.1 200,73 221.7,73 221.7,77.1 213.8,77.1 213.8,94.5 207.9,94.5 		"/>
		<polygon class="st0" points="224.7,73 244.7,73 244.7,77.1 230.5,77.1 230.5,81.6 244,81.6 244,85.5 230.5,85.5 230.5,90.4 
			244.9,90.4 244.9,94.5 224.7,94.5 		"/>
		<polygon class="st0" points="270.4,73 278.9,73 278.9,94.5 273.3,94.5 273.3,77.3 273.2,77.3 266.4,94.5 261.6,94.5 254.8,77.3 
			254.7,77.3 254.7,94.5 249.1,94.5 249.1,73 257.6,73 264,88.5 		"/>
		<path class="st0" d="M298.5,79.3c-0.4-2.8-3-3.1-5.4-3.1c-2.4,0-4,1.1-4,2.5c0,1.1,1,1.8,2.5,2l7.3,1.2c3.9,0.6,6.9,2.1,6.9,6
			c0,4-2.7,7.2-11.1,7.2c-5.2,0-12-0.7-12.1-7.4h6.5c0.1,2.9,3,3.5,5.5,3.5c2.7,0,4.6-0.8,4.6-2.7c0-1.7-1.3-2.1-3.6-2.5l-5.3-0.8
			c-3.7-0.6-7.3-1.7-7.3-6.1c0-4.8,3.9-6.7,10.6-6.7c4.4,0,11,0.8,11.4,6.8H298.5z"/>
		<path class="st0" d="M310,77.8c0-2.6,2.1-4.4,4.5-4.4c2.4,0,4.5,1.9,4.5,4.4c0,2.6-2.1,4.5-4.5,4.5C312.1,82.3,310,80.4,310,77.8
			 M314.5,81.5c2,0,3.6-1.6,3.6-3.7c0-2.1-1.6-3.7-3.6-3.7c-2,0-3.6,1.6-3.6,3.7C310.9,79.9,312.5,81.5,314.5,81.5 M313.6,80.4h-0.8
			v-5.1h2c1.2,0,1.8,0.5,1.8,1.5c0,0.9-0.6,1.3-1.3,1.4l1.5,2.3h-0.9l-1.4-2.2h-0.9V80.4z M314.5,77.5c0.7,0,1.3,0,1.3-0.8
			c0-0.6-0.6-0.8-1.1-0.8h-1.1v1.6H314.5z"/>
		<path class="st0" d="M91,86.1C76.5,80.7,71.2,68,71.2,68c-8.1-20.7-19.1-19.7-19.1-19.7h-0.5c0,0-11-1-19.1,19.7
			c0,0-5.3,12.8-19.8,18.1v0C4.8,76.9,0,65,0,51.9C0,23.2,23.2,0,51.9,0c28.7,0,51.9,23.2,51.9,51.9C103.8,65,98.9,77,91,86.1
			L91,86.1z"/>
		<path class="st0" d="M29.5,99.1c-1.4-0.8-2.8-1.5-4-2.3c10-6.2,17.2-14.2,21.1-24.2c4.6-11.6,6.7-8.1,10.6,0.1
			c4.3,9.1,10,17.9,20.3,24.1c-1.2,0.7-2.6,1.6-3.8,2.2c-6.8-3.6-14-11.4-19.5-21.6c-2.3-3.9-3-3-4.9,0.4
			C42.3,90.2,35.9,95.2,29.5,99.1"/>
		<path class="st0" d="M88.5,88c-2.1,2.1-3.2,3.2-5.6,4.9L82,93.5l-1.4-0.8c-7.9-3.8-14.8-11.5-18.3-19.1
			c-7.3-16.2-12.5-21.9-20.6,0c-3.3,8.5-9.4,13.8-17.1,18.1l-3.4,1.7l-0.2,0c-2.2-1.6-4.3-3.2-6.2-5.1l2.7-1.5
			c8.9-4.2,15.2-10.6,19.8-21.9c7.7-18.9,21.9-19.1,29.1-0.1c4.5,11.9,11.5,19.2,21.3,22.8"/>
		<path class="st0" d="M36.5,101.6c4.5-3.5,8.8-7.2,11.5-11.9c2.6-4.5,4.3-5.1,7.4,0.2c2.9,4.8,6.4,8.9,11.1,11.6
			c-1.4,0.3-2.7,0.8-3.9,1.1c-4-3.5-7.9-7.5-9.9-11.7c-1.2-2.4-1.2-2.1-2.4,0.2c-2.5,4.6-6.9,8.1-10.7,11.4
			C38.5,102.2,37.6,101.9,36.5,101.6"/>
		<path class="st1" d="M51.8,43.3c6.9,0,12.7-5.6,12.7-12.5c0-6.8-5.7-12.4-12.7-12.4c-7,0-12.7,5.6-12.7,12.4
			C39.2,37.7,44.9,43.3,51.8,43.3"/>
	</g>
</g>
<g id="Since_1972">
</g>
</svg>
