<?xml version="1.0" encoding="utf-8"?>
<!-- Generator: Adobe Illustrator 19.2.1, SVG Export Plug-In . SVG Version: 6.00 Build 0)  -->
<svg version="1.1" id="Layer_1" xmlns="http://www.w3.org/2000/svg" xmlns:xlink="http://www.w3.org/1999/xlink" x="0px" y="0px"
	 viewBox="0 0 30 19.9" style="enable-background:new 0 0 30 19.9;" xml:space="preserve">
<style type="text/css">
	.st0{fill-rule:evenodd;clip-rule:evenodd;fill:#010101;}
	.st1{fill-rule:evenodd;clip-rule:evenodd;fill:#EE2925;}
	.st2{fill-rule:evenodd;clip-rule:evenodd;fill:#FDDB39;}
	.st3{fill:#F1F0F0;stroke:#F3F3F4;stroke-width:0.216;stroke-miterlimit:2.4142;}
	.st4{fill-rule:evenodd;clip-rule:evenodd;fill:#214097;}
	.st5{fill:#010101;}
</style>
<g>
	<path class="st0" d="M0,0c0.7,0,1.3,0,2,0c1.7,0,3.3,0,5,0c2.2,0,4.4,0,6.7,0c2.3,0,4.6,0,6.9,0c1.9,0,3.9,0,5.8,0
		c1.1,0,2.2,0,3.3,0c0.1,0,0.2,0,0.3,0c0.1,0,0,0.1,0,0.1c0,0.9,0,1.7,0,2.6c0,1.1,0,2.1,0,3.2c0,0.2,0,0.5,0,0.7c0,0,0,0-0.1,0
		c-0.9,0-1.8,0-2.7,0c-1.8,0-3.6,0-5.5,0c-2.3,0-4.6,0-6.8,0c-2.3,0-4.5,0-6.8,0c-1.8,0-3.6,0-5.4,0c-0.9,0-1.8,0-2.6,0
		C0,6.7,0,6.7,0,6.6c0-0.3,0-0.5,0-0.8c0-1.1,0-2.2,0-3.2C0,1.7,0,0.9,0,0L0,0z"/>
	<path class="st1" d="M0,13.3c0.7,0,1.3,0,2,0c1.7,0,3.3,0,5,0c2.2,0,4.4,0,6.7,0c2.3,0,4.6,0,6.9,0c1.9,0,3.9,0,5.8,0
		c1.1,0,2.2,0,3.3,0c0.1,0,0.2,0,0.3,0c0.1,0,0-0.1,0-0.1c0-0.9,0-1.7,0-2.6c0-1.1,0-2.1,0-3.2c0-0.2,0-0.5,0-0.7c0,0,0,0-0.1,0
		c-0.9,0-1.8,0-2.7,0c-1.8,0-3.6,0-5.5,0c-2.3,0-4.6,0-6.8,0c-2.3,0-4.5,0-6.8,0c-1.8,0-3.6,0-5.4,0c-0.9,0-1.8,0-2.6,0
		C0,6.7,0,6.6,0,6.7C0,7,0,7.2,0,7.5c0,1.1,0,2.2,0,3.2C0,11.6,0,12.5,0,13.3L0,13.3z"/>
	<path class="st2" d="M0,13.3c0.7,0,1.3,0,2,0c1.7,0,3.3,0,5,0c2.2,0,4.4,0,6.7,0c2.3,0,4.6,0,6.9,0c1.9,0,3.9,0,5.8,0
		c1.1,0,2.2,0,3.3,0c0.1,0,0.2,0,0.3,0c0.1,0,0,0.1,0,0.1c0,0.9,0,1.7,0,2.6c0,1.1,0,2.1,0,3.2c0,0.2,0,0.5,0,0.7c0,0,0,0-0.1,0
		c-0.9,0-1.8,0-2.7,0c-1.8,0-3.6,0-5.5,0c-2.3,0-4.6,0-6.8,0c-2.3,0-4.5,0-6.8,0c-1.8,0-3.6,0-5.4,0c-0.9,0-1.8,0-2.6,0
		C0,20,0,20,0,19.9c0-0.3,0-0.5,0-0.8c0-1.1,0-2.2,0-3.2C0,15,0,14.2,0,13.3L0,13.3z"/>
</g>
<g>
	<path class="st3" d="M0,0c0.7,0,1.3,0,2,0c1.7,0,3.3,0,5,0c2.2,0,4.4,0,6.7,0c2.3,0,4.6,0,6.9,0c1.9,0,3.9,0,5.8,0
		c1.1,0,2.2,0,3.3,0C29.8,0,30,0,30,0.1c0,0.4,0,0.7,0,1.1c0,1.8,0,3.6,0,5.3c0,2.3,0,4.6,0,6.9c0,1.8,0,3.6,0,5.4
		c0,0.4,0,0.8,0,1.1c0,0.1-0.2,0.1-0.3,0.1c-1.1,0-2.2,0-3.2,0c-1.9,0-3.8,0-5.8,0c-2.3,0-4.6,0-6.9,0c-2.2,0-4.5,0-6.7,0
		c-1.7,0-3.4,0-5,0c-0.7,0-1.4,0-2,0c0,0,0-2.6,0-2.7c0-2.1,0-4.2,0-6.3c0-2.2,0-4.5,0-6.7c0-1.3,0-2.7,0-4C0,0.2,0,0.1,0,0L0,0z"/>
	<g>
		<path class="st4" d="M19.5,12c-0.7,1.5-2.1,2.7-3.8,2.9c-1.6,0.3-3.2-0.3-4.4-1.5C9.9,12,9.5,9.6,10.5,7.7
			c-0.1,0.8-0.1,1.6,0.3,2.3c0.3,0.6,0.9,1,1.5,1.1c0.7,0.1,1.5-0.1,2.1-0.6c0.3-0.2,0.5-0.6,0.8-0.8c0.3-0.3,0.6-0.5,1-0.7
			C17,8.7,18,8.9,18.6,9.4c0.3,0.3,0.6,0.7,0.8,1.1c0.1,0.2,0.1,0.5,0.2,0.7c0,0.1,0,0.3,0,0.4C19.6,11.7,19.6,11.9,19.5,12
			C18.8,13.8,19.5,12,19.5,12z"/>
		<path class="st1" d="M15,5c1.6,0,3.1,0.8,4,2c1,1.4,1.3,3.3,0.6,5c0.2-1.4-0.6-2.9-2.1-3.1c-0.7-0.1-1.4,0.1-1.9,0.6
			c-0.3,0.2-0.5,0.6-0.8,0.8c-0.3,0.3-0.6,0.5-1.1,0.7c-1.4,0.5-2.7-0.3-3.1-1.7c-0.1-0.4-0.1-0.8-0.1-1.2c0-0.2,0.1-0.4,0.2-0.6
			C10.7,7.3,10.9,7.1,11,7c0.5-0.7,1.2-1.2,1.9-1.5C13.6,5.2,14.3,5,15,5C17.7,5,15,5,15,5z"/>
		<path class="st5" d="M5.6,6.8C6.5,5.4,7.5,4,8.4,2.6c0,0,0,0,0-0.1c0.2,0.1,0.4,0.2,0.5,0.4C9,3,9.1,3,9.1,3.1
			C8.9,3.4,8.7,3.7,8.5,3.9C7.9,4.8,7.3,5.7,6.7,6.6C6.6,6.8,6.4,7,6.3,7.2C6.1,7.1,5.9,6.9,5.6,6.8L5.6,6.8z M6.6,7.5
			c0.9-1.4,1.8-2.7,2.7-4.1c0,0,0,0,0-0.1C9.6,3.4,9.8,3.5,10,3.6c0.1,0.1,0.2,0.1,0.1,0.2C9.9,4.1,9.7,4.4,9.5,4.6
			C8.9,5.5,8.3,6.4,7.7,7.3C7.6,7.5,7.5,7.7,7.3,7.9C7.1,7.8,6.9,7.6,6.6,7.5L6.6,7.5z M4.6,6.1C5.5,4.7,6.4,3.3,7.3,2
			c0,0,0,0,0-0.1C7.5,2,7.7,2.2,7.9,2.3C8,2.3,8.1,2.3,8,2.4C7.8,2.7,7.6,3,7.4,3.3C6.8,4.2,6.2,5.1,5.6,6C5.5,6.2,5.4,6.4,5.2,6.5
			C5,6.4,4.8,6.2,4.6,6.1L4.6,6.1z"/>
		<path class="st5" d="M23.7,7.2c-0.9-1.4-1.8-2.7-2.7-4.1C20.9,3,21,3,21,2.9c0.2-0.1,0.4-0.2,0.5-0.4c0.9,1.4,1.8,2.7,2.7,4.1
			c0.1,0.1,0,0.1-0.1,0.2C24,7,23.8,7.1,23.7,7.2L23.7,7.2z M24.7,6.5c-0.4-0.6-0.9-1.3-1.3-1.9c0.1-0.1,0.3-0.2,0.4-0.3
			c0.1,0,0.2-0.2,0.3-0.1c0.2,0.3,0.4,0.6,0.6,0.9c0.2,0.3,0.4,0.6,0.6,0.9c0,0.1-0.2,0.2-0.2,0.2C25,6.3,24.9,6.4,24.7,6.5
			L24.7,6.5z M23.2,4.3c-0.3-0.5-0.6-1-1-1.4c0,0-0.3-0.5-0.3-0.5c0.2-0.2,0.5-0.3,0.7-0.5c0.3,0.5,0.6,1,1,1.4c0,0,0.3,0.4,0.3,0.5
			C23.7,4,23.4,4.1,23.2,4.3L23.2,4.3z M22.6,7.9C22.5,7.7,21.4,6,21.4,6c0.2-0.1,0.4-0.2,0.6-0.4c0.1-0.1,0.1-0.1,0.2,0
			c0.3,0.4,0.6,0.9,0.9,1.3c0,0,0.4,0.5,0.3,0.5C23.1,7.6,22.9,7.8,22.6,7.9L22.6,7.9z M21.1,5.7c-0.3-0.5-0.6-1-1-1.5
			c0,0-0.3-0.4-0.3-0.5c0.2-0.2,0.5-0.3,0.7-0.5c0.4,0.6,0.8,1.3,1.3,1.9C21.6,5.4,21.4,5.5,21.1,5.7L21.1,5.7z"/>
		<path class="st5" d="M23.3,12.6c-0.1,0.2-1.3,1.9-1.3,1.9c-0.2-0.1-0.4-0.2-0.6-0.4c-0.1-0.1-0.1-0.1-0.1-0.2
			c0.3-0.4,0.6-0.9,0.9-1.3c0.1-0.2,0.2-0.4,0.4-0.5C22.9,12.2,23.1,12.4,23.3,12.6L23.3,12.6z M21.8,14.8c-0.4,0.6-0.8,1.3-1.3,1.9
			c-0.1-0.1-0.3-0.2-0.4-0.3c0,0-0.3-0.1-0.2-0.2c0.2-0.3,0.4-0.6,0.6-0.9c0.2-0.3,0.4-0.6,0.6-0.9c0-0.1,0.2,0.1,0.3,0.1
			C21.5,14.6,21.7,14.7,21.8,14.8L21.8,14.8z M25.4,13.9c-0.4,0.6-0.9,1.3-1.3,1.9c-0.2-0.2-0.5-0.3-0.7-0.5c0,0,0.3-0.4,0.3-0.5
			c0.3-0.5,0.7-1,1-1.5C25,13.6,25.2,13.8,25.4,13.9L25.4,13.9z M23.9,16.2c-0.4,0.6-0.8,1.3-1.3,1.9c-0.2-0.2-0.5-0.3-0.7-0.5
			c0,0,0.2-0.4,0.3-0.4c0.3-0.5,0.7-1,1-1.5C23.4,15.9,23.7,16.1,23.9,16.2L23.9,16.2z M24.4,13.3c-0.3,0.5-0.6,1-1,1.4
			c0,0-0.3,0.5-0.3,0.5c-0.2-0.2-0.5-0.3-0.7-0.5c0.4-0.6,0.9-1.3,1.3-1.9C23.9,12.9,24.1,13.1,24.4,13.3L24.4,13.3z M22.9,15.5
			c-0.4,0.6-0.9,1.3-1.3,1.9c-0.1-0.1-0.3-0.2-0.4-0.3c0,0-0.3-0.1-0.2-0.2c0.2-0.3,0.4-0.6,0.6-0.9c0.2-0.3,0.4-0.6,0.6-0.9
			c0-0.1,0.2,0.1,0.3,0.1C22.6,15.3,22.7,15.4,22.9,15.5L22.9,15.5z"/>
		<path class="st5" d="M6.3,12.8c0.4,0.6,0.9,1.3,1.3,1.9c-0.1,0.1-0.3,0.2-0.4,0.3c0,0-0.2,0.2-0.3,0.2c-0.2-0.3-0.4-0.6-0.6-0.9
			c-0.2-0.3-0.4-0.6-0.6-0.9c0-0.1,0.2-0.2,0.2-0.2C6,13,6.2,12.9,6.3,12.8L6.3,12.8z M7.3,12.1c0.9,1.4,1.8,2.7,2.7,4.1
			c0.1,0.1,0,0.1-0.1,0.2c-0.2,0.1-0.4,0.2-0.5,0.4c-0.9-1.4-1.8-2.7-2.7-4.1c-0.1-0.1,0-0.1,0.1-0.2C7,12.3,7.2,12.2,7.3,12.1
			L7.3,12.1z M5.3,13.5c0.9,1.4,1.8,2.7,2.7,4.1c0.1,0.1,0,0.1-0.1,0.2c-0.2,0.1-0.4,0.2-0.5,0.4c-0.9-1.4-1.8-2.7-2.7-4.1
			c-0.1-0.1,0-0.1,0.1-0.2C4.9,13.7,5.1,13.6,5.3,13.5L5.3,13.5z M7.8,15c0.3,0.5,0.6,1,1,1.4c0,0,0.3,0.5,0.3,0.5
			c-0.2,0.2-0.5,0.3-0.7,0.5c-0.4-0.6-0.9-1.3-1.3-1.9C7.4,15.4,7.6,15.2,7.8,15L7.8,15z"/>
	</g>
</g>
</svg>
